4264
4328
4375
4266
4271
4397
4377
4331
4345
4288
4250
4292
4257
4382
4236
4341
4270
4265
4285
4275
4214
4392
4219
4221
4294
4251
4335
4402
4338
4248
4396
4347
4321
4307
4269
4326
4379
4381
4240
4226
4223
4245
4325
4395
4372
4353
4237
4330
4405
4368
4249
4323
4373
4378
4234
4315
4299
4238
4244
4332
4336
4329
4403
4304
4308
4311
4350
4348
4229
4227
4287
4208
4401
4305
4388
4228
4231
4246
4389
4346
4390
4281
4351
4393
4357
4385
4212
4242
4398
4220
4267
4302
4274
4280
4255
4362
4277
137
1520
4256
4262
4303
4210
4289
4279
4259
1244
3405
3984
4243
1630
4314
247
4278
921
3761
4225
1071
253
1537
2543
2594
4352
1089
4356
2880
1531
2378
2978
1906
363
4293
3218
1709
3304
885
2419
3157
1569
490
107
676
3440
585
4310
3674
3408
3188
1003
2896
3905
1823
2489
1491
3958
1724
2524
2719
3900
186
302
2194
305
1379
79
3063
3418
1371
1430
675
2874
1196
1398
511
246
3339
2883
4399
2476
1253
70
2303
3921
2345
3892
3415
3413
2193
1369
385
3091
3021
2871
2866
3986
1473
105
1101
663
2455
3422
1646
867
937
2865
3234
3676
3833
1127
2123
505
3516
1233
2484
2704
1187
2237
1684
527
3090
1170
2263
3668
19
1943
487
3277
2166
2918
175
3489
288
647
1231
3093
764
3437
3438
2208
1435
2968
265
204
1853
3184
342
3429
3407
3646
3025
4224
1563
2891
4316
637
400
565
667
767
3244
812
717
1703
2515
2897
3582
641
3139
4076
3842
1165
1018
2864
608
3379
3436
3435
1181
532
2879
907
708
1691
2413
4050
3867
34
1378
657
3573
1632
381
866
1613
2520
2586
2644
1663
2902
2665
201
1835
308
2399
3821
1911
3680
3797
3554
4012
4253
1607
2181
442
1849
704
2077
1989
370
233
3414
228
1924
1493
1582
2862
1676
4358
2461
483
3862
1436
454
1221
680
1625
597
447
884
2889
3948
1459
2136
2624
904
2423
187
1633
3419
1561
462
1060
1695
833
2942
1796
1777
2877
1545
12
1409
3045
2070
3420
57
3452
592
481
2200
2506
1385
3612
3373
3122
3482
1535
1291
114
1955
1736
3606
1713
705
696
625
1966
3854
950
1267
1406
3992
1283
2609
3639
1160
2105
737
1538
3920
3087
699
325
3916
1059
2872
1130
4169
3598
268
1825
2100
1348
1560
1268
1039
2962
3039
3834
3465
2425
2602
1317
1232
126
4297
3064
2283
748
3897
1345
1116
97
1476
3254
17
1266
614
435
4080
3553
3577
458
1699
1627
3306
3757
1329
1557
2898
383
645
1087
1217
2592
199
694
353
1771
1185
1704
3581
972
2435
1804
944
1768
2842
646
3467
1599
852
377
618
2647
795
849
412
3116
2440
1080
4070
2082
1865
1662
590
1336
2750
350
388
600
4105
1466
3758
701
960
2110
644
3919
3293
1438
1770
469
613
2873
249
45
681
1604
1926
380
3923
2972
3877
434
1697
556
2138
3884
2860
215
1131
2198
428
2814
2876
3868
3409
4186
596
145
2915
1204
46
156
1203
865
2253
41
4190
3724
782
2662
855
2741
314
3831
1373
55
1115
3040
2236
4006
1618
4116
3879
3558
1872
50
2884
2607
4069
486
2899
2901
1564
2055
1746
2831
1821
3406
348
3241
1921
1992
512
566
648
1001
677
3325
1269
3120
2343
1304
949
92
3081
1871
1907
3230
3785
2758
355
286
3017
803
480
470
1199
4001
1255
102
1568
1883
526
3955
256
3777
357
115
977
2090
4170
552
1128
1038
1139
1246
687
1021
4172
1216
2255
284
3850
4059
821
3881
1339
3416
688
860
1914
1554
3313
2656
1006
2364
3112
3484
3550
386
420
2679
47
384
506
2582
3375
3568
1252
1108
3033
3068
67
754
2958
1158
3151
1776
2573
691
38
3917
1443
1964
3817
2888
1279
3952
1719
1145
269
2833
283
4173
771
1245
1083
788
3019
3918
1740
1638
723
1950
547
1659
2887
1816
1138
1666
2432
1635
2893
3933
1881
2606
3295
3161
3333
2749
1241
2931
1105
1754
1053
3748
1761
1134
2196
961
2751
405
3987
84
2818
2246
4
2250
3626
652
2760
4185
2619
2390
530
409
1758
324
1118
3995
1870
4051
3368
3121
2944
1655
2739
558
1043
2684
4177
955
790
947
2282
1611
1119
2402
721
3073
1671
820
2979
1234
1660
1374
1654
1450
1629
2861
2976
1715
3404
3479
1351
467
3292
441
1480
757
1973
1166
4052
1838
3105
1967
1686
3167
3882
879
1146
318
341
802
1073
3439
488
3528
2154
1551
2964
2928
2400
544
1045
1376
2260
3570
1124
698
1722
1753
1129
1328
33
1110
724
2645
2535
1173
252
417
1028
112
1790
3839
2853
3399
3876
610
1789
3596
395
4204
1672
2485
1566
3451
1162
4146
834
133
2344
1416
2886
160
3342
1679
3472
2148
683
3179
674
8
848
2394
2045
2632
2463
2317
153
212
739
1377
1614
672
3143
2109
2603
194
44
1755
4184
1360
562
3086
638
192
361
448
2989
1082
2216
2245
1762
514
1343
3324
1597
3963
975
3216
1066
630
4002
89
3922
2744
827
2726
489
2234
3551
4083
3135
72
4072
61
4121
1903
3830
1288
1606
3264
1126
1693
1282
901
2778
1581
4295
3605
1428
1201
1207
4071
2759
1109
2513
832
1875
3965
1123
2984
3189
3132
3835
2190
1390
742
3763
722
631
2567
3417
3829
330
243
3723
2743
3388
1498
3428
3328
3547
49
2777
1628
276
387
3951
291
427
591
692
3138
2986
2793
3910
2651
1775
2
3284
616
2331
524
1017
141
4127
2316
18
830
569
4174
2934
3934
3330
289
2367
111
1183
3326
3265
2782
1284
1408
1341
3993
3011
2168
2952
80
520
3026
1441
3301
3285
3323
